%YAML 1.1
%TAG !u! tag:unity3d.com,2011:
--- !u!114 &11400000
MonoBehaviour:
  m_ObjectHideFlags: 0
  m_CorrespondingSourceObject: {fileID: 0}
  m_PrefabInstance: {fileID: 0}
  m_PrefabAsset: {fileID: 0}
  m_GameObject: {fileID: 0}
  m_Enabled: 1
  m_EditorHideFlags: 0
  m_Script: {fileID: 11500000, guid: 13b75c95f34a00d4e8c04f76b73312e6, type: 3}
  m_Name: Acid
  m_EditorClassIdentifier: 
  m_AnimatedSprites:
  - {fileID: 21300000, guid: e9c13fa8828377a4cbb7841418a85589, type: 3}
  - {fileID: 21300000, guid: 864f83361c6610c4896f54c68d7805ca, type: 3}
  - {fileID: 21300000, guid: 597e1c07bef88974a9d4b6d31dc072b4, type: 3}
  - {fileID: 21300000, guid: 205910da596a3614d969d6d49d6238bf, type: 3}
  - {fileID: 21300000, guid: 8ccddab0f1eba344b84b988494bc85bc, type: 3}
  m_MinSpeed: 4
  m_MaxSpeed: 4
  m_AnimationStartTime: 0
  m_AnimationStartFrame: 0
  m_TileColliderType: 2
