%YAML 1.1
%TAG !u! tag:unity3d.com,2011:
--- !u!114 &11400000
MonoBehaviour:
  m_ObjectHideFlags: 0
  m_CorrespondingSourceObject: {fileID: 0}
  m_PrefabInstance: {fileID: 0}
  m_PrefabAsset: {fileID: 0}
  m_GameObject: {fileID: 0}
  m_Enabled: 1
  m_EditorHideFlags: 0
  m_Script: {fileID: 11500000, guid: 13b75c95f34a00d4e8c04f76b73312e6, type: 3}
  m_Name: Ground-InnerBottomRight
  m_EditorClassIdentifier: 
  m_AnimatedSprites:
  - {fileID: -954759249, guid: c1075e6283c1a1343905d1812ed4b785, type: 3}
  - {fileID: -2144455842, guid: 940652c32dae13846b40bdddeeccb9d7, type: 3}
  - {fileID: -2115493434, guid: 6378aa588bf6ff94c870c45082ec2b2e, type: 3}
  - {fileID: 1386670784, guid: cd3b9e28429b9094498aa0d54e43f58c, type: 3}
  - {fileID: 426532174, guid: e8a2ce0f2b2d5014baf0d359e3450f40, type: 3}
  - {fileID: 2078171107, guid: bbfcca9eceffee8489fdb90659fbba6a, type: 3}
  - {fileID: 968745114, guid: 44e9895ebf48cb0489b734034c531843, type: 3}
  m_MinSpeed: 4
  m_MaxSpeed: 4
  m_AnimationStartTime: 0
  m_AnimationStartFrame: 0
  m_TileColliderType: 2
